[
	{
        "per_page": 15,
        "total_entries": 241,
        "total_pages": 17,
        "page": 1
    },
    [{
        "name" : "awd",
        "addressasdasd123123" : "awawdawddadwa",
        "phone number" : "65161561",
        "Date" : "fgbfgb"
    },{
        "name" : "vxccxvx",
        "addressasdasd123123" : "assvwcsevd",
        "phone number" : "svsdvsdvsdv",
        "Date" : "awdvsdvd"
    },{
        "name" : "asevsvwd",
        "addressasdasd123123" : "advfdbvvwd",
        "phone number" : "651651",
        "Date" : "awd"
    },{
        "name" : "awfgbd",
        "addressasdasd123123" : "bfgbfb",
        "phone number" : "awgbfgbfgbfd",
        "Date" : "bfgbfgbbg"
    },{
        "name" : "afgbfgbwd",
        "addressasdasd123123" : "afgbbfgbwd",
        "phone number" : "awfgbfbergd",
        "Date" : "awfgbfgbfgd"
    }]
]